…
> hist(original_data$dep_delay)
> hist(original_data[original_data$dep_delay < 30,])
Error in plot.new() : figure margins too large
> hist(original_data[original_data$dep_delay < 30,])
Error in plot.new() : figure margins too large
> original_data[original_data$dep_delay < 30,]
# A tibble: 170,645 x 43
   year.x month   day dep_time sched_dep_time dep_delay arr_time sched_arr_time arr_delay carrier
    <dbl> <dbl> <dbl>    <dbl>          <dbl>     <dbl>    <dbl>          <dbl>     <dbl> <chr>  
 1   2013    11     7      600            600         0      826            825         1 WN     
 2   2013    10    30     1252           1250         2     1356           1400        -4 AA     
 3   2013    12    18     1723           1715         8     2008           2020       -12 DL     
 4   2013    11    20     2029           2030        -1     2141           2205       -24 WN     
 5   2013    10    21     1620           1625        -5     1818           1831       -13 DL     
 6   2013    11     7      852            900        -8     1139           1157       -18 B6     
 7   2013     9    29     1519           1529       -10     1639           1649       -10 EV     
 8   2013    12    21     1526           1530        -4     1654           1710       -16 EV     
 9   2013    11     7     1650           1650         0     1910           1906         4 9E     
10   2013     3    31     1652           1700        -8     1810           1821       -11 US     
# … with 170,635 more rows, and 33 more variables: flight <dbl>, tailnum <chr>, origin <chr>,
#   dest <chr>, air_time <dbl>, distance <dbl>, hour <dbl>, minute <dbl>, time_hour <dttm>,
#   temp <dbl>, dewp <dbl>, humid <dbl>, wind_dir <dbl>, wind_speed <dbl>, wind_gust <dbl>,
#   precip <dbl>, pressure <dbl>, visib <dbl>, name <chr>, lat <dbl>, lon <dbl>, alt <dbl>,
#   tz <dbl>, dst <chr>, tzone <chr>, year.y <dbl>, type <chr>, manufacturer <chr>, model <chr>,
#   engines <dbl>, seats <dbl>, speed <dbl>, engine <chr>
…
